An Introdution to Geospatial Data Structures
…
TL:DR, we have gone over two techniques in storing geospatial data. Cluster grouping condenses the dataframe into 2D polygons; on the other hand, drawing polygons around centroids expands the dataframe into 2D polygons.

3. Creating a 2D Polygon on Real Data

Using everything we’ve discussed so far, let’s draw a geospatial map. First we will load in a vector of coordinates.

us_geo

# A tibble: 48 × 3
   name        geometry                                                 iso_code
   <chr>       <chr>                                                    <chr>   
 1 Alabama     MULTIPOLYGON (((-88.053375 30.506987, -88.0510879999999… US-AL   
 2 Arizona     POLYGON ((-114.816294 32.508038, -114.814321 32.509023,… US-AZ   
 3 Arkansas    POLYGON ((-94.6178329666013 36.4994141203285, -94.61764… US-AR   
 4 California  MULTIPOLYGON (((-118.604415 33.478552, -118.598783 33.4… US-CA   
 5 Colorado    POLYGON ((-109.060253 38.599328, -109.059541 38.719888,… US-CO   
 6 Connecticut MULTIPOLYGON (((-72.761427 41.242333, -72.759733 41.248… US-CT   
 7 Delaware    MULTIPOLYGON (((-75.565546 39.51485, -75.56174299999999… US-DE   
 8 Florida     MULTIPOLYGON (((-80.176276 25.525054, -80.1739499999999… US-FL   
 9 Georgia     MULTIPOLYGON (((-81.27939099999999 31.30792, -81.277159… US-GA   
10 Idaho       POLYGON ((-117.242675 44.396548, -117.234835 44.399669,… US-ID   
# ℹ 38 more rows
…
